<?xml version="1.0" encoding="UTF-8" standalone="no"?>
<svg
   viewBox="0 0 191.94288 192"
   version="1.1"
   id="svg65"
   sodipodi:docname="blocksCAD_logo_carré.svg"
   width="191.94289"
   height="192"
   inkscape:version="1.3.2 (1:1.3.2+202311252150+091e20ef0f)"
   inkscape:export-filename="blocksCAD_logo_carré.png"
   inkscape:export-xdpi="96"
   inkscape:export-ydpi="96"
   xmlns:inkscape="http://www.inkscape.org/namespaces/inkscape"
   xmlns:sodipodi="http://sodipodi.sourceforge.net/DTD/sodipodi-0.dtd"
   xmlns="http://www.w3.org/2000/svg"
   xmlns:svg="http://www.w3.org/2000/svg"
   xmlns:rdf="http://www.w3.org/1999/02/22-rdf-syntax-ns#"
   xmlns:cc="http://creativecommons.org/ns#"
   xmlns:dc="http://purl.org/dc/elements/1.1/">
  <sodipodi:namedview
     id="namedview67"
     pagecolor="#ffffff"
     bordercolor="#666666"
     borderopacity="1.0"
     inkscape:showpageshadow="2"
     inkscape:pageopacity="0.0"
     inkscape:pagecheckerboard="true"
     inkscape:deskcolor="#d1d1d1"
     showgrid="false"
     inkscape:zoom="1.1733631"
     inkscape:cx="-48.578313"
     inkscape:cy="302.54914"
     inkscape:window-width="1884"
     inkscape:window-height="1030"
     inkscape:window-x="36"
     inkscape:window-y="0"
     inkscape:window-maximized="1"
     inkscape:current-layer="svg65" />
  <defs
     id="defs7">
    <style
       id="style2">.cls-1{fill:none;}.cls-2{fill:#fff;}.cls-3{clip-path:url(#clip-path);}.cls-4{fill:#25408f;}.cls-5{fill:#00aeef;}.cls-6{fill:#006838;}.cls-7{fill:#3db149;}.cls-8{fill:#ee2a7b;}.cls-9{fill:#f6891f;}</style>
  </defs>
  <title
     id="title9">blocks_logo</title>
  <g
     id="g3"
     transform="matrix(1.199643,0,0,1.199643,11.613491,116.21932)"
     style="stroke-width:0.833581">
    <path
       class="cls-2"
       d="m 52.557382,-46.951335 a 10.280332,10.280332 0 0 0 -5.185019,2.996188 9.4012108,9.4012108 0 0 0 -3.014129,4.431486 l 0.161471,37.3177868 c 0.305001,2.09912164 5.884728,6.7100241 8.181207,6.7100241 h 36.259252 c 2.135006,0 7.176494,-4.93384579 7.320026,-7.0329674 V -40.851312 c -0.08971,-1.794125 -4.682666,-6.100023 -7.068852,-6.100023 z M 88.960164,14.928011 H 52.700912 c -5.167078,0 -10.082978,-3.767664 -11.948868,-5.3823736 -2.475891,-2.1529475 -6.6562,-6.5306125 -6.6562,-11.7515116 l -0.14353,-37.2998448 c 0,-7.858264 9.903566,-17.528593 18.264184,-17.941242 h 36.976898 c 5.202962,0 9.760038,3.588249 11.482394,5.149136 a 16.147118,16.147118 0 0 1 6.01032,11.374748 v 38.412202 c 0,7.6609058 -9.957387,17.438886 -17.743889,17.438886"
       id="path23"
       style="stroke-width:0.833581" />
    <g
       id="g2"
       transform="translate(-0.9407888,-127.14775)"
       style="stroke-width:0.833581">
      <path
         class="cls-4"
         d="m 1.165925,186.14797 c 2.215201,0 3.4080016,-1.01104 3.4080016,-2.7548 0,-2.31176 -1.3291206,-3.3228 -4.17480206,-3.3228 H -1.4355164 v 6.0776 z m -0.79520046,-9.38905 c 2.31176116,0 3.54432176,-0.98263 3.54432176,-2.94224 0,-1.6472 -1.1700806,-2.37424 -2.6866413,-2.37424 h -2.6923214 v 5.31648 z m 1.48816076,-9.088 c 4.112322,0 6.9580031,1.73808 6.9580031,5.47552 0,2.75481 -1.29504,4.4304 -3.7942415,5.21993 2.9763215,0.85767 4.5440023,2.62416 4.5440023,5.06088 0,4.65192 -3.1012817,6.54905 -8.2246442,6.54905 H -8.7400001 v -2.72073 l 2.3742412,-0.94856 v -14.87025 l -2.3742412,-0.92584 v -2.71504 l 7.2760837,-0.15904 z"
         id="path29"
         style="stroke-width:0.833581" />
      <polygon
         class="cls-4"
         points="153.36,67.76 153.36,72.22 135.48,72.22 135.48,67.76 139.94,66.37 139.94,35.06 135.48,33.95 135.48,29.49 148.35,29.05 148.35,66.37 "
         id="polygon33"
         transform="matrix(0.56800029,0,0,0.56800029,-66.812349,148.92692)"
         style="stroke-width:1.46757" />
      <path
         class="cls-4"
         d="m 24.999217,181.40517 c 0,3.48184 1.011041,5.06088 3.322801,5.06088 2.311761,0 3.408002,-1.42568 3.408002,-5.21992 0,-3.22625 -0.94856,-4.90753 -3.226242,-4.90753 -2.27768,0 -3.481841,1.26665 -3.481841,5.06089 m 11.609926,-0.31808 c 0,5.68 -3.322802,9.1732 -8.446165,9.1732 -5.123362,0 -8.094004,-2.70368 -8.094004,-8.6904 0,-5.68001 3.408002,-9.01985 8.520004,-9.01985 5.112003,0 7.952005,3.10128 7.952005,8.52"
         id="path35"
         style="stroke-width:0.833581" />
      <path
         class="cls-4"
         d="m 52.746031,187.55093 a 10.496645,10.496645 0 0 1 -6.816003,2.68665 c -5.219923,0 -8.224645,-3.22625 -8.224645,-8.60521 0,-5.62888 3.163762,-9.08801 8.701765,-9.08801 a 17.545529,17.545529 0 0 1 5.538002,1.136 l -0.15904,5.18585 h -2.840002 l -0.44304,-2.272 a 9.0880042,9.0880042 0 0 0 -2.18112,-0.25561 c -2.272001,0 -3.703362,1.51657 -3.703362,4.68032 0,3.44777 1.32912,5.44145 3.976002,5.44145 2.2152,0 3.606801,-1.1076 4.589442,-1.704 z"
         id="path37"
         style="stroke-width:0.833581" />
      <polygon
         class="cls-4"
         points="226.97,53.33 230.76,47.65 228.31,46.87 228.31,42.42 242.68,42.14 242.68,46.87 238.78,47.6 233.6,54.89 239.84,66.42 244.07,67.76 244.07,72.22 233.77,72.22 226.86,58.63 223.3,58.63 223.3,66.37 226.36,67.76 226.36,72.22 210.49,72.22 210.49,67.76 214.94,66.37 214.94,35.06 210.49,33.95 210.49,29.49 223.3,29.05 223.3,53.33 "
         id="polygon41"
         transform="matrix(0.56800029,0,0,0.56800029,-66.812349,148.92692)"
         style="stroke-width:1.46757" />
      <path
         class="cls-4"
         d="m 76.039723,186.46605 a 10.632965,10.632965 0 0 0 2.65824,0.31808 c 1.738081,0 2.595762,-0.5396 2.595762,-1.55064 0,-2.59576 -8.446164,-1.6472 -8.446164,-7.27608 0,-3.976 3.163762,-5.41305 6.520643,-5.41305 a 22.958572,22.958572 0 0 1 5.884486,0.94857 l -0.12496,4.74848 h -2.692324 l -0.477121,-1.89712 a 7.3840037,7.3840037 0 0 0 -2.181121,-0.31808 c -1.363201,0 -2.181121,0.568 -2.181121,1.61312 0,2.56167 8.446163,1.45408 8.446163,6.9296 0,3.64088 -2.94224,5.68001 -7.276083,5.68001 a 27.536653,27.536653 0 0 1 -5.850402,-0.6816 v -5.15745 h 2.840002 z"
         id="path43"
         style="stroke-width:0.833581" />
      <path
         class="cls-4"
         d="m 101.46909,171.72076 a 12.092726,12.092726 0 0 0 -3.544316,-0.50552 c -3.322804,0 -5.219924,2.47081 -5.219924,7.75321 0,5.112 2.05616,7.27608 5.378964,7.27608 3.163766,0 6.009436,-2.2152 6.009436,-2.2152 l 1.73808,2.84 a 12.496006,12.496006 0 0 1 -8.28712,3.44777 c -6.424084,0 -10.127444,-3.86241 -10.127444,-11.20097 0,-7.43513 4.174804,-11.86553 10.661364,-11.86553 a 21.584011,21.584011 0 0 1 7.38401,1.48816 l -0.1704,6.0208 h -3.10128 z"
         id="path45"
         style="stroke-width:0.833581" />
      <path
         class="cls-4"
         d="m 117.94679,173.20893 -2.49921,7.52599 h 4.87345 z m 11.86552,16.73896 h -10.05928 v -2.69232 l 2.37424,-0.852 -0.75545,-2.31176 h -7.03184 l -0.78952,2.272 2.46512,0.88608 v 2.68664 h -9.55376 v -2.68096 l 2.31176,-0.88608 6.958,-18.63609 5.06088,-0.0966 6.81601,18.74401 2.2152,0.88608 z"
         id="path49"
         style="stroke-width:0.833581" />
      <path
         class="cls-4"
         d="m 140.82015,186.14797 c 3.06721,0 5.11201,-1.80056 5.11201,-7.4976 0,-5.31648 -1.80056,-7.21361 -4.90184,-7.21361 h -2.84 v 14.71121 z m -7.53168,-14.71121 -2.36856,-0.92584 v -2.71504 l 7.27608,-0.15904 h 3.00473 c 6.32752,0 10.05928,3.73176 10.05928,10.85449 0,7.12272 -4.11232,11.45089 -10.5364,11.45089 h -9.80369 v -2.68665 l 2.37424,-0.94856 z"
         id="path51"
         style="stroke-width:0.833581" />
    </g>
    <g
       id="g1"
       transform="matrix(1.0271514,0,0,1.0271514,-2.6992001,-10.597541)"
       style="stroke-width:0.811546">
      <path
         class="cls-4"
         d="m 75.589141,-8.1264858 c 4.305902,0 10.585334,5.5976683 13.455934,5.8129641 l 6.925316,26.9118597 c -1.184116,9.65239 -7.355908,21.76273 -19.250946,21.76273 H 42.110786 c -4.305898,0 -10.26239,-5.113257 -10.26239,-10.585336 L 31.704866,3.0150249 c 0,-4.3058966 5.167077,-11.1415107 10.172685,-11.3388638 z"
         id="path13"
         style="stroke-width:0.811546" />
      <path
         class="cls-5"
         d="m 85.187708,-19.016822 c 4.3059,0 10.585333,5.597669 10.567392,9.9215071 l 0.19735,33.6218899 c 0,4.305896 -5.382367,10.872393 -10.980034,10.764746 l -33.263063,0.143526 c -4.305902,0 -10.262393,-5.041487 -10.262393,-10.58533 L 41.285489,-7.9291326 c 0,-4.3058964 5.167076,-11.1415104 10.172685,-11.3388634 z"
         id="path15"
         style="stroke-width:0.811546" />
      <path
         class="cls-6"
         d="m 73.238841,-72.643193 c 4.377665,0 10.764742,5.687373 13.635342,5.902668 l 6.5665,29.31599 c 0,8.970623 -5.167083,19.968602 -19.071545,19.968602 H 39.276071 c -4.377664,0 -10.405921,-5.18502 -10.405921,-10.764746 l -0.161472,-29.118635 c 0,-12.684457 4.539135,-15.967706 15.393585,-24.776855 z"
         id="path17"
         style="stroke-width:0.811546" />
      <path
         class="cls-7"
         d="m 82.980933,-83.694999 c 4.377667,0 10.76475,5.687374 10.76475,10.065038 l 0.19735,34.088359 c 0,4.377664 -5.382367,11.033864 -11.141508,10.872395 l -33.8013,0.161469 c -4.377665,0 -10.405923,-5.113254 -10.405923,-10.764745 l -0.143529,-33.22718 c 0,-4.377663 5.238842,-11.302983 10.316214,-11.500337 z"
         id="path19"
         style="stroke-width:0.811546" />
      <path
         class="cls-8"
         d="m 43.241082,-52.172237 c 4.915904,0 12.289756,6.387083 12.271814,11.302984 v 38.358378 c 0,4.9158974 -7.60709,12.2359241 -12.558873,12.2359241 H 6.7306575 c -4.9159011,0 -13.3841672,-6.9791408 -13.3841672,-11.8950441 l -0.1435299,-37.371607 c 0,-4.9159 7.55326301,-12.397398 13.2765187,-12.55887 z"
         id="path21"
         style="stroke-width:0.811546" />
      <rect
         class="cls-2"
         x="50.309937"
         y="-28.758911"
         width="32.025116"
         height="13.653285"
         id="rect27"
         style="stroke-width:0.811546" />
      <path
         class="cls-9"
         d="m 130.72258,-52.172237 c 4.9159,0 12.05651,6.387083 12.05651,11.302984 v 38.358378 c 0,4.9158974 -7.39178,12.2359241 -12.30769,12.2359241 H 94.21215 c -4.915892,0 -13.384162,-6.9791408 -13.384162,-11.8950441 v -37.371607 c 0,-4.9159 7.391787,-12.397398 13.115045,-12.55887 z"
         id="path53"
         style="stroke-width:0.811546" />
      <path
         class="cls-2"
         d="m 94.086566,-46.951335 c -2.314425,0.179413 -7.930033,4.628841 -8.037683,7.427674 v 37.3357235 c 0.305008,2.08118494 5.884733,6.6920874 8.181208,6.6920874 H 130.4714 c 2.09912,0 7.01503,-4.93384579 7.1765,-7.0329674 V -40.851312 c 0,-1.794125 -4.53913,-6.100023 -6.85356,-6.100023 z M 130.4714,14.928011 H 94.21215 c -5.167075,0 -10.082975,-3.767664 -11.948867,-5.3823736 C 79.769453,7.3926899 75.607084,3.0150249 75.607084,-2.2058742 V -39.541602 c 0,-7.840322 9.831799,-17.510652 18.102716,-17.833594 h 37.01278 a 17.708007,17.708007 0 0 1 11.41064,5.185019 A 16.147118,16.147118 0 0 1 148,-40.851312 v 38.340437 c 0,7.8223799 -9.67033,17.438886 -17.51066,17.438886"
         id="path55"
         style="stroke-width:0.811546" />
      <path
         class="cls-2"
         d="m 40.765193,-25.995962 a 8.52209,8.52209 0 1 1 -8.52209,-8.522092 8.52209,8.52209 0 0 1 8.52209,8.522092"
         id="path57"
         style="stroke-width:0.811546" />
      <path
         class="cls-2"
         d="m 128.19287,-25.995962 a 8.52209,8.52209 0 1 1 -8.5221,-8.522092 8.52209,8.52209 0 0 1 8.5221,8.522092"
         id="path59"
         style="stroke-width:0.811546" />
    </g>
  </g>
  <metadata
     id="metadata376">
    <rdf:RDF>
      <cc:Work
         rdf:about="">
        <dc:title>blocks_logo</dc:title>
      </cc:Work>
    </rdf:RDF>
  </metadata>
</svg>
